<svg width="46" height="46" viewBox="0 0 46 46" fill="none" xmlns="http://www.w3.org/2000/svg">
<path fill-rule="evenodd" clip-rule="evenodd" d="M32.1521 17.25H8.09792C6.80033 17.25 5.75 16.1997 5.75 14.9021V8.09792C5.75 6.80033 6.80033 5.75 8.09792 5.75H32.154C33.4497 5.75 34.5 6.80033 34.5 8.09792V14.904C34.5 16.1997 33.4497 17.25 32.1521 17.25V17.25Z" stroke="#162850" stroke-width="1.5" stroke-linecap="round" stroke-linejoin="round"/>
<path fill-rule="evenodd" clip-rule="evenodd" d="M23 42.1667H19.1667C18.1087 42.1667 17.25 41.308 17.25 40.25V30.6667C17.25 29.6087 18.1087 28.75 19.1667 28.75H23C24.058 28.75 24.9167 29.6087 24.9167 30.6667V40.25C24.9167 41.308 24.058 42.1667 23 42.1667Z" stroke="#162850" stroke-width="1.5" stroke-linecap="round" stroke-linejoin="round"/>
<path d="M21.0833 28.75V24.9167C21.0833 23.8587 21.942 23 23 23H38.3333C39.3913 23 40.25 22.1413 40.25 21.0833V13.4167C40.25 12.3587 39.3913 11.5 38.3333 11.5H34.5" stroke="#162850" stroke-width="1.5" stroke-linecap="round" stroke-linejoin="round"/>
</svg>
