<svg width="89" height="66" viewBox="0 0 89 66" fill="none" xmlns="http://www.w3.org/2000/svg">
<path d="M8 35.9013L30.4639 58L30.3188 57.8572L81 8" stroke="#162850" stroke-width="15" stroke-linecap="round" stroke-linejoin="round"/>
</svg>
